{
  "profiles": {
    "DevelopedLuka": {
      "commandName": "Project",
      "commandLineArgs": "1000 160000000000000000000000000000000000000000000000000000000000000000000000000001 160000000000000000000000000000000000000000000000000000000000000000000001000001 result.txt"
    }
  }
}